%YAML 1.1
%TAG !u! tag:unity3d.com,2011:
--- !u!114 &11400000
MonoBehaviour:
  m_ObjectHideFlags: 0
  m_CorrespondingSourceObject: {fileID: 0}
  m_PrefabInternal: {fileID: 0}
  m_GameObject: {fileID: 0}
  m_Enabled: 1
  m_EditorHideFlags: 0
  m_Script: {fileID: -1357528570, guid: e98d45d69e2c4936a7382af00fd45e58, type: 3}
  m_Name: Default Material Palette
  m_EditorClassIdentifier: 
  array:
  - {fileID: 2100000, guid: f9e867ebd149e6f4588b9e7a70948730, type: 2}
  - {fileID: 2100000, guid: 9902b58b32ed6e74a9784507c04d7d41, type: 2}
  - {fileID: 2100000, guid: d2ae77954f890d24799cf3eb37032b39, type: 2}
  - {fileID: 0}
  - {fileID: 0}
  - {fileID: 0}
  - {fileID: 0}
  - {fileID: 0}
  - {fileID: 0}
  - {fileID: 0}
